{
    "T00001": [
        {
            "id": "group1",
            "groupColumn": "col-sm-12 col-md-12 col-lg-12 col-xl-12",
            "rowHeight": "35%",
            "subGroup": "N",
            "group": [
                {
                    "columnId": 1,
                    "columns": "col-sm-6 col-md-2 col-lg-2 col-xl-2",
                    "top90": false
                },
                {
                    "columnId": 2,
                    "columns": "col-sm-6 col-md-2 col-lg-2 col-xl-2",
                    "top90": false
                },
                {
                    "columnId": 3,
                    "columns": "col-sm-6 col-md-2 col-lg-2 col-xl-2",
                    "top90": false
                },
                {
                    "columnId": 4,
                    "columns": "col-sm-6 col-md-2 col-lg-2 col-xl-2",
                    "top90": false
                },
                {
                    "columnId": 5,
                    "columns": "col-sm-6 col-md-2 col-lg-2 col-xl-2",
                    "top90": false
                },
                {
                    "columnId": 6,
                    "columns": "col-sm-6 col-md-2 col-lg-2 col-xl-2",
                    "top90": false
                }
            ]
        },
        {
            "id": "group2",
            "groupColumn": "col-sm-12 col-md-12 col-lg-12 col-xl-12",
            "subGroup": "Y",
            "rowHeight": "65%",
            "group": [
                {
                    "columnId": 7,
                    "columns": "col-sm-12 col-md-4 col-lg-4 col-xl-4"
                },
                {
                    "columnId": 8,
                    "columns": "col-sm-12 col-md-4 col-lg-4 col-xl-4"
                },
                {
                    "columnId": "group3",
                    "columns": "col-sm-12 col-md-4 col-lg-4 col-xl-4",
                    "group": [
                        {
                            "columnId": 9,
                            "columns": "col-sm-12 col-md-6 col-lg-6 col-xl-6",
                            "top90": true
                        },
                        {
                            "columnId": 10,
                            "columns": "col-sm-12 col-md-6 col-lg-6 col-xl-6",
                            "top90": true
                        },
                        {
                            "columnId": 11,
                            "columns": "col-sm-12 col-md-6 col-lg-6 col-xl-6",
                            "top90": false
                        },
                        {
                            "columnId": 12,
                            "columns": "col-sm-12 col-md-6 col-lg-6 col-xl-6",
                            "top90": false
                        }
                    ]
                }
            ]
        }
    ],
    "T00002": [
        {
            "id": "group2",
            "groupColumn": "col-sm-12 col-md-12 col-lg-12 col-xl-12",
            "subGroup": "Y",
            "rowHeight": "65%",
            "group": [
                {
                    "columnId": 1,
                    "columns": "col-sm-12 col-md-4 col-lg-4 col-xl-4"
                },
                {
                    "columnId": 2,
                    "columns": "col-sm-12 col-md-4 col-lg-4 col-xl-4"
                },
                {
                    "columnId": "group3",
                    "columns": "col-sm-12 col-md-4 col-lg-4 col-xl-4",
                    "group": [
                        {
                            "columnId": 3,
                            "columns": "col-sm-12 col-md-6 col-lg-6 col-xl-6",
                            "top90": false
                        },
                        {
                            "columnId": 4,
                            "columns": "col-sm-12 col-md-6 col-lg-6 col-xl-6",
                            "top90": false
                        },
                        {
                            "columnId": 5,
                            "columns": "col-sm-12 col-md-6 col-lg-6 col-xl-6",
                            "top90": true
                        },
                        {
                            "columnId": 6,
                            "columns": "col-sm-12 col-md-6 col-lg-6 col-xl-6",
                            "top90": true
                        }
                    ]
                }
            ]
        },
        {
            "id": "group1",
            "groupColumn": "col-sm-12 col-md-12 col-lg-12 col-xl-12",
            "subGroup": "N",
            "rowHeight": "35%",
            "group": [
                {
                    "columnId": 7,
                    "columns": "col-sm-6 col-md-2 col-lg-2 col-xl-2",
                    "top90": false
                },
                {
                    "columnId": 8,
                    "columns": "col-sm-6 col-md-2 col-lg-2 col-xl-2",
                    "top90": false
                },
                {
                    "columnId": 9,
                    "columns": "col-sm-6 col-md-2 col-lg-2 col-xl-2",
                    "top90": false
                },
                {
                    "columnId": 10,
                    "columns": "col-sm-6 col-md-2 col-lg-2 col-xl-2",
                    "top90": false
                },
                {
                    "columnId": 11,
                    "columns": "col-sm-6 col-md-2 col-lg-2 col-xl-2",
                    "top90": false
                },
                {
                    "columnId": 12,
                    "columns": "col-sm-6 col-md-2 col-lg-2 col-xl-2",
                    "top90": false
                }
            ]
        }
    ],
    "T00003": [
        {
            "id": "group2",
            "groupColumn": "col-sm-12 col-md-12 col-lg-12 col-xl-12",
            "subGroup": "Y",
            "rowHeight": "65%",
            "group": [
                {
                    "columnId": "group3",
                    "columns": "col-sm-12 col-md-4 col-lg-4 col-xl-4",
                    "group": [
                        {
                            "columnId": 1,
                            "columns": "col-sm-12 col-md-6 col-lg-6 col-xl-6",
                            "top90": false
                        },
                        {
                            "columnId": 2,
                            "columns": "col-sm-12 col-md-6 col-lg-6 col-xl-6",
                            "top90": false
                        },
                        {
                            "columnId": 3,
                            "columns": "col-sm-12 col-md-6 col-lg-6 col-xl-6",
                            "top90": true
                        },
                        {
                            "columnId": 4,
                            "columns": "col-sm-12 col-md-6 col-lg-6 col-xl-6",
                            "top90": true
                        }
                    ]
                },
                {
                    "columnId": 5,
                    "columns": "col-sm-12 col-md-4 col-lg-4 col-xl-4"
                },
                {
                    "columnId": 6,
                    "columns": "col-sm-12 col-md-4 col-lg-4 col-xl-4"
                }
            ]
        },
        {
            "id": "group1",
            "groupColumn": "col-sm-12 col-md-12 col-lg-12 col-xl-12",
            "subGroup": "N",
            "rowHeight": "35%",
            "group": [
                {
                    "columnId": 7,
                    "columns": "col-sm-6 col-md-2 col-lg-2 col-xl-2",
                    "top90": false
                },
                {
                    "columnId": 8,
                    "columns": "col-sm-6 col-md-2 col-lg-2 col-xl-2",
                    "top90": false
                },
                {
                    "columnId": 9,
                    "columns": "col-sm-6 col-md-2 col-lg-2 col-xl-2",
                    "top90": false
                },
                {
                    "columnId": 10,
                    "columns": "col-sm-6 col-md-2 col-lg-2 col-xl-2",
                    "top90": false
                },
                {
                    "columnId": 11,
                    "columns": "col-sm-6 col-md-2 col-lg-2 col-xl-2",
                    "top90": false
                },
                {
                    "columnId": 12,
                    "columns": "col-sm-6 col-md-2 col-lg-2 col-xl-2",
                    "top90": false
                }
            ]
        }
    ],
    "T00004": [
        {
            "id": "group1",
            "groupColumn": "col-sm-12 col-md-12 col-lg-12 col-xl-12",
            "subGroup": "N",
            "rowHeight": "35%",
            "group": [
                {
                    "columnId": 1,
                    "columns": "col-sm-6 col-md-2 col-lg-2 col-xl-2",
                    "top90": false
                },
                {
                    "columnId": 2,
                    "columns": "col-sm-6 col-md-2 col-lg-2 col-xl-2",
                    "top90": false
                },
                {
                    "columnId": 3,
                    "columns": "col-sm-6 col-md-2 col-lg-2 col-xl-2",
                    "top90": false
                },
                {
                    "columnId": 4,
                    "columns": "col-sm-6 col-md-2 col-lg-2 col-xl-2",
                    "top90": false
                },
                {
                    "columnId": 5,
                    "columns": "col-sm-6 col-md-2 col-lg-2 col-xl-2",
                    "top90": false
                },
                {
                    "columnId": 6,
                    "columns": "col-sm-6 col-md-2 col-lg-2 col-xl-2",
                    "top90": false
                }
            ]
        },
        {
            "id": "group2",
            "groupColumn": "col-sm-12 col-md-12 col-lg-12 col-xl-12",
            "subGroup": "Y",
            "rowHeight": "65%",
            "group": [
                {
                    "columnId": "group3",
                    "columns": "col-sm-12 col-md-4 col-lg-4 col-xl-4",
                    "group": [
                        {
                            "columnId": 7,
                            "columns": "col-sm-12 col-md-6 col-lg-6 col-xl-6",
                            "top90": true
                        },
                        {
                            "columnId": 8,
                            "columns": "col-sm-12 col-md-6 col-lg-6 col-xl-6",
                            "top90": true
                        },
                        {
                            "columnId": 9,
                            "columns": "col-sm-12 col-md-6 col-lg-6 col-xl-6",
                            "top90": false
                        },
                        {
                            "columnId": 10,
                            "columns": "col-sm-12 col-md-6 col-lg-6 col-xl-6",
                            "top90": false
                        }
                    ]
                },
                {
                    "columnId": 11,
                    "columns": "col-sm-12 col-md-4 col-lg-4 col-xl-4"
                },
                {
                    "columnId": 12,
                    "columns": "col-sm-12 col-md-4 col-lg-4 col-xl-4"
                }
            ]
        }
    ],
    "T00005": [
        {
            "id": "group2",
            "groupColumn": "col-sm-12 col-md-12 col-lg-12 col-xl-12",
            "subGroup": "Y",
            "rowHeight": "65%",
            "group": [
                {
                    "columnId": 1,
                    "columns": "col-sm-12 col-md-4 col-lg-4 col-xl-4"
                },
                {
                    "columnId": 2,
                    "columns": "col-sm-12 col-md-4 col-lg-4 col-xl-4"
                },
                {
                    "columnId": "group3",
                    "columns": "col-sm-12 col-md-4 col-lg-4 col-xl-4",
                    "group": [
                        {
                            "columnId": 3,
                            "columns": "col-sm-12 col-md-6 col-lg-6 col-xl-6",
                            "top90": false
                        },
                        {
                            "columnId": 4,
                            "columns": "col-sm-12 col-md-6 col-lg-6 col-xl-6",
                            "top90": false
                        },
                        {
                            "columnId": 5,
                            "columns": "col-sm-12 col-md-6 col-lg-6 col-xl-6",
                            "top90": true
                        },
                        {
                            "columnId": 6,
                            "columns": "col-sm-12 col-md-6 col-lg-6 col-xl-6",
                            "top90": true
                        }
                    ]
                }
            ]
        },
        {
            "id": "group1",
            "groupColumn": "col-sm-12 col-md-12 col-lg-12 col-xl-12",
            "subGroup": "N",
            "rowHeight": "35%",
            "group": [
                {
                    "columnId": 7,
                    "columns": "col-sm-6 col-md-2 col-lg-2 col-xl-2",
                    "top90": false
                },
                {
                    "columnId": 8,
                    "columns": "col-sm-6 col-md-2 col-lg-2 col-xl-2",
                    "top90": false
                },
                {
                    "columnId": 9,
                    "columns": "col-sm-6 col-md-2 col-lg-2 col-xl-2",
                    "top90": false
                },
                {
                    "columnId": 10,
                    "columns": "col-sm-6 col-md-2 col-lg-2 col-xl-2",
                    "top90": false
                },
                {
                    "columnId": 11,
                    "columns": "col-sm-6 col-md-2 col-lg-2 col-xl-2",
                    "top90": false
                },
                {
                    "columnId": 12,
                    "columns": "col-sm-6 col-md-2 col-lg-2 col-xl-2",
                    "top90": false
                }
            ]
        }
    ],
    "T00006": [
        {
            "id": "group2",
            "groupColumn": "col-sm-12 col-md-12 col-lg-12 col-xl-12",
            "subGroup": "Y",
            "rowHeight": "65%",
            "group": [
                {
                    "columnId": 1,
                    "columns": "col-sm-12 col-md-4 col-lg-4 col-xl-4"
                },
                {
                    "columnId": 2,
                    "columns": "col-sm-12 col-md-4 col-lg-4 col-xl-4"
                },
                {
                    "columnId": 3,
                    "columns": "col-sm-12 col-md-4 col-lg-4 col-xl-4"
                }
            ]
        },
        {
            "id": "group1",
            "groupColumn": "col-sm-12 col-md-12 col-lg-12 col-xl-12",
            "subGroup": "N",
            "rowHeight": "35%",
            "group": [
                {
                    "columnId": 4,
                    "columns": "col-sm-6 col-md-2 col-lg-2 col-xl-2",
                    "top90": false
                },
                {
                    "columnId": 5,
                    "columns": "col-sm-6 col-md-2 col-lg-2 col-xl-2",
                    "top90": false
                },
                {
                    "columnId": 6,
                    "columns": "col-sm-12 col-md-4 col-lg-4 col-xl-4",
                    "top90": false
                },
                {
                    "columnId": 7,
                    "columns": "col-sm-6 col-md-2 col-lg-2 col-xl-2",
                    "top90": false
                },
                {
                    "columnId": 8,
                    "columns": "col-sm-6 col-md-2 col-lg-2 col-xl-2",
                    "top90": false
                }
            ]
        }
    ],
    "T00007": [
        {
            "id": "group2",
            "groupColumn": "col-sm-12 col-md-12 col-lg-12 col-xl-12",
            "subGroup": "Y",
            "rowHeight": "65%",
            "group": [
                {
                    "columnId": 1,
                    "columns": "col-sm-12 col-md-4 col-lg-4 col-xl-4"
                },
                {
                    "columnId": 2,
                    "columns": "col-sm-12 col-md-4 col-lg-4 col-xl-4"
                },
                {
                    "columnId": 3,
                    "columns": "col-sm-12 col-md-4 col-lg-4 col-xl-4"
                }
            ]
        },
        {
            "id": "group1",
            "groupColumn": "col-sm-12 col-md-12 col-lg-12 col-xl-12",
            "subGroup": "N",
            "rowHeight": "35%",
            "group": [
                {
                    "columnId": 4,
                    "columns": "col-sm-6 col-md-2 col-lg-2 col-xl-2",
                    "top90": false
                },
                {
                    "columnId": 5,
                    "columns": "col-sm-6 col-md-2 col-lg-2 col-xl-2",
                    "top90": false
                },
                {
                    "columnId": 6,
                    "columns": "col-sm-6 col-md-2 col-lg-2 col-xl-2",
                    "top90": false
                },
                {
                    "columnId": 7,
                    "columns": "col-sm-6 col-md-2 col-lg-2 col-xl-2",
                    "top90": false
                },
                {
                    "columnId": 8,
                    "columns": "col-sm-6 col-md-2 col-lg-2 col-xl-2",
                    "top90": false
                },
                {
                    "columnId": 9,
                    "columns": "col-sm-6 col-md-2 col-lg-2 col-xl-2",
                    "top90": false
                }
            ]
        }
    ],
    "T00008": [
        {
            "id": "group1",
            "groupColumn": "col-sm-12 col-md-12 col-lg-12 col-xl-12",
            "rowHeight": "100%",
            "subGroup": "N",
            "group": [
                {
                    "columnId": 1,
                    "columns": "col-sm-12 col-md-6 col-lg-6 col-xl-6"
                },
                {
                    "columnId": 2,
                    "columns": "col-sm-12 col-md-6 col-lg-6 col-xl-6"
                }
            ]
        }
    ],
    "T00009": [
        {
            "id": "group1",
            "groupColumn": "col-sm-12 col-md-12 col-lg-12 col-xl-12",
            "subGroup": "N",
            "rowHeight": "65%",
            "group": [
                {
                    "columnId": 1,
                    "columns": "col-sm-12 col-md-6 col-lg-6 col-xl-6"
                },
                {
                    "columnId": 2,
                    "columns": "col-sm-12 col-md-6 col-lg-6 col-xl-6"
                }
            ]
        },
        {
            "id": "group2",
            "groupColumn": "col-sm-12 col-md-12 col-lg-12 col-xl-12",
            "subGroup": "N",
            "rowHeight": "35%",
            "group": [
                {
                    "columnId": 3,
                    "columns": "col-sm-6 col-md-3 col-lg-3 col-xl-3",
                    "top90": false
                },
                {
                    "columnId": 4,
                    "columns": "col-sm-6 col-md-3 col-lg-3 col-xl-3",
                    "top90": false
                },
                {
                    "columnId": 5,
                    "columns": "col-sm-6 col-md-3 col-lg-3 col-xl-3",
                    "top90": false
                },
                {
                    "columnId": 6,
                    "columns": "col-sm-6 col-md-3 col-lg-3 col-xl-3",
                    "top90": false
                }
            ]
        }
    ],
    "T00010": [
        {
            "id": "group1",
            "groupColumn": "col-sm-12 col-md-12 col-lg-12 col-xl-12",
            "subGroup": "N",
            "rowHeight": "50%",
            "group": [
                {
                    "columnId": 1,
                    "columns": "col-sm-12 col-md-4 col-lg-4 col-xl-4"
                },
                {
                    "columnId": 2,
                    "columns": "col-sm-12 col-md-4 col-lg-4 col-xl-4"
                },
                {
                    "columnId": 3,
                    "columns": "col-sm-12 col-md-4 col-lg-4 col-xl-4"
                }
            ]
        },
        {
            "id": "group2",
            "groupColumn": "col-sm-12 col-md-12 col-lg-12 col-xl-12",
            "subGroup": "N",
            "rowHeight": "25%",
            "group": [
                {
                    "columnId": 4,
                    "columns": "col-sm-6 col-md-2 col-lg-2 col-xl-2",
                    "top90": false
                },
                {
                    "columnId": 5,
                    "columns": "col-sm-6 col-md-2 col-lg-2 col-xl-2",
                    "top90": false
                },
                {
                    "columnId": 6,
                    "columns": "col-sm-6 col-md-2 col-lg-2 col-xl-2",
                    "top90": false
                },
                {
                    "columnId": 7,
                    "columns": "col-sm-6 col-md-2 col-lg-2 col-xl-2",
                    "top90": false
                },
                {
                    "columnId": 8,
                    "columns": "col-sm-6 col-md-2 col-lg-2 col-xl-2",
                    "top90": false
                },
                {
                    "columnId": 9,
                    "columns": "col-sm-6 col-md-2 col-lg-2 col-xl-2",
                    "top90": false
                }
            ]
        },
        {
            "id": "group2",
            "groupColumn": "col-sm-12 col-md-12 col-lg-12 col-xl-12",
            "subGroup": "N",
            "rowHeight": "25%",
            "group": [
                {
                    "columnId": 10,
                    "columns": "col-sm-6 col-md-2 col-lg-2 col-xl-2",
                    "top90": false
                },
                {
                    "columnId": 11,
                    "columns": "col-sm-6 col-md-2 col-lg-2 col-xl-2",
                    "top90": false
                },
                {
                    "columnId": 12,
                    "columns": "col-sm-6 col-md-2 col-lg-2 col-xl-2",
                    "top90": false
                },
                {
                    "columnId": 13,
                    "columns": "col-sm-6 col-md-2 col-lg-2 col-xl-2",
                    "top90": false
                },
                {
                    "columnId": 14,
                    "columns": "col-sm-6 col-md-2 col-lg-2 col-xl-2",
                    "top90": false
                },
                {
                    "columnId": 15,
                    "columns": "col-sm-6 col-md-2 col-lg-2 col-xl-2",
                    "top90": false
                }
            ]
        }
    ]
}