{
  "status": 1,
  "message": "",
  "response": {
    "recordIndicatorNt": 7,
    "recordIndicator": -1,
    "maker": 0,
    "makerName": "",
    "verifier": 0,
    "verifierName": "",
    "internalStatus": 0,
    "checked": false,
    "totalRows": 0,
    "currentPage": 1,
    "minRecords": 1,
    "maxRecords": 20,
    "verificationRequired": true,
    "staticDelete": true,
    "newRecord": false,
    "dateLastModified": "",
    "dateCreation": "",
    "dbStatus": 0,
    "locale": null,
    "previousActionType": "",
    "screenName": "",
    "updateRestrictionCountry": "",
    "updateRestrictionLeBook": "",
    "updateRestrictionLegalVehicle": "",
    "remoteAddress": "",
    "auditDelimiter": "|!#",
    "auditDelimiterColVal": "^!#",
    "startIndex": 0,
    "lastIndex": 3000,
    "makerNameFltrCond": null,
    "verifierNameFltrCond": null,
    "dateCreationFltrCond": null,
    "dateLastModifiedFltrCond": null,
    "actionType": "",
    "statusDesc": "",
    "recordIndicatorDesc": "",
    "sortHeaderColumnMap": {},
    "dashboardId": "MDM00001",
    "dashboardName": "Branch Performance",
    "prompts": {
      "recordIndicatorNt": 7,
      "recordIndicator": -1,
      "maker": 0,
      "makerName": "",
      "verifier": 0,
      "verifierName": "",
      "internalStatus": 0,
      "checked": false,
      "totalRows": 0,
      "currentPage": 1,
      "minRecords": 1,
      "maxRecords": 20,
      "verificationRequired": true,
      "staticDelete": true,
      "newRecord": false,
      "dateLastModified": "",
      "dateCreation": "",
      "dbStatus": 0,
      "locale": null,
      "previousActionType": "",
      "screenName": "",
      "updateRestrictionCountry": "",
      "updateRestrictionLeBook": "",
      "updateRestrictionLegalVehicle": "",
      "remoteAddress": "",
      "auditDelimiter": "|!#",
      "auditDelimiterColVal": "^!#",
      "startIndex": 0,
      "lastIndex": 3000,
      "makerNameFltrCond": null,
      "verifierNameFltrCond": null,
      "dateCreationFltrCond": null,
      "dateLastModifiedFltrCond": null,
      "actionType": "",
      "statusDesc": "",
      "recordIndicatorDesc": "",
      "sortHeaderColumnMap": {},
      "promptValue1": "",
      "promptValue2": "",
      "promptValue3": "",
      "promptValue4": "",
      "promptValue5": "",
      "promptValue6": "",
      "promptValue7": "",
      "promptValue8": "",
      "promptValue9": "",
      "promptValue10": "",
      "reportId": "",
      "reportTitle": "",
      "subReportFlag": false,
      "columnHeaderslst": null
    },
    "dashboardTabs": [{
      "tabId": "001",
      "tabName": "Overview",
      "noOfTiles": "",
      "noOfCharts": "",
      "templateId": "T00001",
      "tileDetails": [{
          "tileId": "T001",
          "tileCaption": "Revenue YTD",
          "tileSequence": 1,
          "tileType": "T",
          "columns": "col-sm-6 col-lg-2 col-xl-2 col-md-2",
          "drillDownFlag": false,
          "queryId": "Q00001",
          "currency": "",
          "value1": "",
          "value1NegativeFlag": false,
          "value2": "",
          "value2NegativeFlag": true,
          "value3": "",
          "value3NegativeFlag": false,
          "value4": "",
          "value4NegativeFlag": false,
          "resultlst": [{
            "tileId": "",
            "tileCaption": "",
            "tileSequence": 0,
            "tileType": "",
            "drillDownFlag": false,
            "queryId": "",
            "currency": "KES",
            "value1": "6160073067.90154",
            "value1NegativeFlag": false,
            "value2": "0.99",
            "value2NegativeFlag": true,
            "value3": "10.23",
            "value3NegativeFlag": false,
            "value4": "11.55",
            "value4NegativeFlag": false,
            "chartType": "Bar2d",
            "chartData": {
              "chart": {
                "caption": "",
                "subCaption": "",
                "xAxisName": "",
                "yAxisName": "",
                "numberSuffix": "K",
                "theme": "fusion"
              },
              "data": [{
                  "label": "Customer 1",
                  "value": "290"
                },
                {
                  "label": "Customer 2",
                  "value": "260"
                },
                {
                  "label": "Customer 3",
                  "value": "180"
                },
                {
                  "label": "Customer 4",
                  "value": "140"
                },
                {
                  "label": "Customer 5",
                  "value": "115"
                },
                {
                  "label": "Customer 6",
                  "value": "100"
                },
                {
                  "label": "Customer 7",
                  "value": "30"
                },
                {
                  "label": "Customer 8",
                  "value": "30"
                }
              ]
            },
            "resultlst": []
          }]
        },
        {
          "tileId": "T001",
          "tileCaption": "Revenue YTD",
          "tileSequence": 1,
          "tileType": "T",
          "columns": "col-sm-6 col-lg-2 col-xl-2 col-md-2",
          "drillDownFlag": false,
          "queryId": "Q00001",
          "currency": "",
          "value1": "",
          "value1NegativeFlag": false,
          "value2": "",
          "value2NegativeFlag": false,
          "value3": "",
          "value3NegativeFlag": false,
          "value4": "",
          "value4NegativeFlag": false,
          "resultlst": [{
            "tileId": "",
            "tileCaption": "",
            "tileSequence": 0,
            "tileType": "",
            "drillDownFlag": false,
            "queryId": "",
            "currency": "KES",
            "value1": "61600",
            "value1NegativeFlag": false,
            "value2": "0.99",
            "value2NegativeFlag": false,
            "value3": "10.23",
            "value3NegativeFlag": false,
            "value4": "11.55",
            "value4NegativeFlag": false,
            "chartType": "Bar2d",
            "chartData": {
              "chart": {
                "caption": "",
                "subCaption": "",
                "xAxisName": "",
                "yAxisName": "",
                "numberSuffix": "K",
                "theme": "fusion"
              },
              "data": [{
                  "label": "Customer 1",
                  "value": "290"
                },
                {
                  "label": "Customer 2",
                  "value": "260"
                },
                {
                  "label": "Customer 3",
                  "value": "180"
                },
                {
                  "label": "Customer 4",
                  "value": "140"
                },
                {
                  "label": "Customer 5",
                  "value": "115"
                },
                {
                  "label": "Customer 6",
                  "value": "100"
                },
                {
                  "label": "Customer 7",
                  "value": "30"
                },
                {
                  "label": "Customer 8",
                  "value": "30"
                }
              ]
            },
            "resultlst": []
          }]
        },
        {
          "tileId": "T001",
          "tileCaption": "Revenue YTD",
          "tileSequence": 1,
          "tileType": "T",
          "columns": "col-sm-6 col-lg-2 col-xl-2 col-md-2",
          "drillDownFlag": false,
          "queryId": "Q00001",
          "currency": "",
          "value1": "",
          "value1NegativeFlag": false,
          "value2": "",
          "value2NegativeFlag": false,
          "value3": "",
          "value3NegativeFlag": false,
          "value4": "",
          "value4NegativeFlag": false,
          "resultlst": [{
            "tileId": "",
            "tileCaption": "",
            "tileSequence": 0,
            "tileType": "",
            "drillDownFlag": false,
            "queryId": "",
            "currency": "KES",
            "value1": "61600",
            "value1NegativeFlag": false,
            "value2": "0.99",
            "value2NegativeFlag": false,
            "value3": "10.23",
            "value3NegativeFlag": false,
            "value4": "11.55",
            "value4NegativeFlag": false,
            "chartType": "Bar2d",
            "chartData": {
              "chart": {
                "caption": "",
                "subCaption": "",
                "xAxisName": "",
                "yAxisName": "",
                "numberSuffix": "K",
                "theme": "fusion"
              },
              "data": [{
                  "label": "Customer 1",
                  "value": "290"
                },
                {
                  "label": "Customer 2",
                  "value": "260"
                },
                {
                  "label": "Customer 3",
                  "value": "180"
                },
                {
                  "label": "Customer 4",
                  "value": "140"
                },
                {
                  "label": "Customer 5",
                  "value": "115"
                },
                {
                  "label": "Customer 6",
                  "value": "100"
                },
                {
                  "label": "Customer 7",
                  "value": "30"
                },
                {
                  "label": "Customer 8",
                  "value": "30"
                }
              ]
            },
            "resultlst": []
          }]
        },
        {
          "tileId": "T001",
          "tileCaption": "Revenue YTD",
          "tileSequence": 1,
          "tileType": "T",
          "columns": "col-sm-6 col-lg-2 col-xl-2 col-md-2",
          "drillDownFlag": false,
          "queryId": "Q00001",
          "currency": "",
          "value1": "",
          "value1NegativeFlag": false,
          "value2": "",
          "value2NegativeFlag": false,
          "value3": "",
          "value3NegativeFlag": false,
          "value4": "",
          "value4NegativeFlag": false,
          "resultlst": [{
            "tileId": "",
            "tileCaption": "",
            "tileSequence": 0,
            "tileType": "",
            "drillDownFlag": false,
            "queryId": "",
            "currency": "KES",
            "value1": "61600",
            "value1NegativeFlag": false,
            "value2": "0.99",
            "value2NegativeFlag": false,
            "value3": "10.23",
            "value3NegativeFlag": false,
            "value4": "11.55",
            "value4NegativeFlag": false,
            "chartType": "Bar2d",
            "chartData": {
              "chart": {
                "caption": "",
                "subCaption": "",
                "xAxisName": "",
                "yAxisName": "",
                "numberSuffix": "K",
                "theme": "fusion"
              },
              "data": [{
                  "label": "Customer 1",
                  "value": "290"
                },
                {
                  "label": "Customer 2",
                  "value": "260"
                },
                {
                  "label": "Customer 3",
                  "value": "180"
                },
                {
                  "label": "Customer 4",
                  "value": "140"
                },
                {
                  "label": "Customer 5",
                  "value": "115"
                },
                {
                  "label": "Customer 6",
                  "value": "100"
                },
                {
                  "label": "Customer 7",
                  "value": "30"
                },
                {
                  "label": "Customer 8",
                  "value": "30"
                }
              ]
            },
            "resultlst": []
          }]
        },
        {
          "tileId": "T001",
          "tileCaption": "Revenue YTD",
          "tileSequence": 1,
          "tileType": "T",
          "columns": "col-sm-6 col-lg-2 col-xl-2 col-md-2",
          "drillDownFlag": false,
          "queryId": "Q00001",
          "currency": "",
          "value1": "",
          "value1NegativeFlag": false,
          "value2": "",
          "value2NegativeFlag": false,
          "value3": "",
          "value3NegativeFlag": false,
          "value4": "",
          "value4NegativeFlag": false,
          "resultlst": [{
            "tileId": "",
            "tileCaption": "",
            "tileSequence": 0,
            "tileType": "",
            "drillDownFlag": false,
            "queryId": "",
            "currency": "KES",
            "value1": "61600",
            "value1NegativeFlag": false,
            "value2": "0.99",
            "value2NegativeFlag": false,
            "value3": "10.23",
            "value3NegativeFlag": false,
            "value4": "11.55",
            "value4NegativeFlag": false,
            "chartType": "Bar2d",
            "chartData": {
              "chart": {
                "caption": "",
                "subCaption": "",
                "xAxisName": "",
                "yAxisName": "",
                "numberSuffix": "K",
                "theme": "fusion"
              },
              "data": [{
                  "label": "Customer 1",
                  "value": "290"
                },
                {
                  "label": "Customer 2",
                  "value": "260"
                },
                {
                  "label": "Customer 3",
                  "value": "180"
                },
                {
                  "label": "Customer 4",
                  "value": "140"
                },
                {
                  "label": "Customer 5",
                  "value": "115"
                },
                {
                  "label": "Customer 6",
                  "value": "100"
                },
                {
                  "label": "Customer 7",
                  "value": "30"
                },
                {
                  "label": "Customer 8",
                  "value": "30"
                }
              ]
            },
            "resultlst": []
          }]
        },
        {
          "tileId": "T001",
          "tileCaption": "Revenue YTD",
          "tileSequence": 1,
          "tileType": "T",
          "columns": "col-sm-6 col-lg-2 col-xl-2 col-md-2",
          "drillDownFlag": false,
          "queryId": "Q00001",
          "currency": "",
          "value1": "",
          "value1NegativeFlag": false,
          "value2": "",
          "value2NegativeFlag": false,
          "value3": "",
          "value3NegativeFlag": false,
          "value4": "",
          "value4NegativeFlag": false,
          "resultlst": [{
            "tileId": "",
            "tileCaption": "",
            "tileSequence": 0,
            "tileType": "",
            "drillDownFlag": false,
            "queryId": "",
            "currency": "KES",
            "value1": "61600",
            "value1NegativeFlag": false,
            "value2": "0.99",
            "value2NegativeFlag": false,
            "value3": "10.23",
            "value3NegativeFlag": false,
            "value4": "11.55",
            "value4NegativeFlag": false,
            "chartType": "Bar2d",
            "chartData": {
              "chart": {
                "caption": "",
                "subCaption": "",
                "xAxisName": "",
                "yAxisName": "",
                "numberSuffix": "K",
                "theme": "fusion"
              },
              "data": [{
                  "label": "Customer 1",
                  "value": "290"
                },
                {
                  "label": "Customer 2",
                  "value": "260"
                },
                {
                  "label": "Customer 3",
                  "value": "180"
                },
                {
                  "label": "Customer 4",
                  "value": "140"
                },
                {
                  "label": "Customer 5",
                  "value": "115"
                },
                {
                  "label": "Customer 6",
                  "value": "100"
                },
                {
                  "label": "Customer 7",
                  "value": "30"
                },
                {
                  "label": "Customer 8",
                  "value": "30"
                }
              ]
            },
            "resultlst": []
          }]
        },
        {
          "tileId": "T001",
          "tileCaption": "Revenue YTD",
          "tileSequence": 1,
          "tileType": "C",
          "columns": "col-sm-6 col-lg-4 col-xl-4 col-md-4",
          "drillDownFlag": false,
          "queryId": "Q00001",
          "currency": "",
          "value1": "",
          "value1NegativeFlag": false,
          "value2": "",
          "value2NegativeFlag": false,
          "value3": "",
          "value3NegativeFlag": false,
          "value4": "",
          "value4NegativeFlag": false,
          "resultlst": [{
            "tileId": "",
            "tileCaption": "",
            "tileSequence": 0,
            "tileType": "",
            "drillDownFlag": false,
            "queryId": "",
            "currency": "KES",
            "value1": "61",
            "value1NegativeFlag": false,
            "value2": "0.09",
            "value2NegativeFlag": false,
            "value3": "0.23",
            "value3NegativeFlag": false,
            "value4": "1.55",
            "value4NegativeFlag": false,
            "chartType": "Bar2d",
            "multichart": false,
            "chartData": {
              "chart": {
                "caption": "",
                "subCaption": "",
                "xAxisName": "",
                "yAxisName": "",
                "numberSuffix": "K",
                "theme": "fusion"
              },
              "data": [{
                  "label": "Customer 1",
                  "value": "290"
                },
                {
                  "label": "Customer 2",
                  "value": "260"
                },
                {
                  "label": "Customer 3",
                  "value": "180"
                },
                {
                  "label": "Customer 4",
                  "value": "140"
                },
                {
                  "label": "Customer 5",
                  "value": "115"
                },
                {
                  "label": "Customer 6",
                  "value": "100"
                },
                {
                  "label": "Customer 7",
                  "value": "30"
                },
                {
                  "label": "Customer 8",
                  "value": "30"
                }
              ]
            },
            "resultlst": []
          }]
        },
        {
          "tileId": "T001",
          "tileCaption": "Revenue YTD",
          "tileSequence": 1,
          "tileType": "C",
          "columns": "col-sm-6 col-lg-4 col-xl-4 col-md-4",
          "drillDownFlag": false,
          "queryId": "Q00001",
          "currency": "",
          "value1": "",
          "value1NegativeFlag": false,
          "value2": "",
          "value2NegativeFlag": false,
          "value3": "",
          "value3NegativeFlag": false,
          "value4": "",
          "value4NegativeFlag": false,
          "resultlst": [{
            "tileId": "",
            "tileCaption": "",
            "tileSequence": 0,
            "tileType": "",
            "drillDownFlag": false,
            "queryId": "",
            "currency": "KES",
            "value1": "61",
            "value1NegativeFlag": false,
            "value2": "0.09",
            "value2NegativeFlag": false,
            "value3": "0.23",
            "value3NegativeFlag": false,
            "value4": "1.55",
            "value4NegativeFlag": false,
            "multichart": false,
            "chartType": "Bar2d",
            "chartData": {
              "chart": {
                "caption": "",
                "subCaption": "",
                "xAxisName": "",
                "yAxisName": "",
                "numberSuffix": "K",
                "paletteColors": "FF0F0F,D33115,E27300,FCC400,B0BC00,68BC00,16A5A5,009CE0",
                "theme": "fusion"
              },
              "data": [{
                  "label": "Customer 1",
                  "value": "290"
                },
                {
                  "label": "Customer 2",
                  "value": "260"
                },
                {
                  "label": "Customer 3",
                  "value": "180"
                }, {
                  "label": "Customer 4",
                  "value": "140"
                }, {
                  "label": "Customer 5",
                  "value": "115"
                }, {
                  "label": "Customer 6",
                  "value": "100"
                }, {
                  "label": "Customer 7",
                  "value": "30"
                }, {
                  "label": "Customer 8",
                  "value": "30"
                }
              ]
            },
            "resultlst": []
          }]
        },
        {
          "tileId": "T001",
          "tileCaption": "Revenue YTD",
          "tileSequence": 1,
          "tileType": "G",
          "columns": "col-sm-6 col-lg-4 col-xl-4 col-md-4",
          "drillDownFlag": false,
          "queryId": "Q00001",
          "currency": "",
          "value1": "",
          "value1NegativeFlag": false,
          "value2": "",
          "value2NegativeFlag": false,
          "value3": "",
          "value3NegativeFlag": false,
          "value4": "",
          "value4NegativeFlag": false,
          "resultlst": [{
            "tileId": "",
            "tileCaption": "",
            "tileSequence": 0,
            "tileType": "",
            "drillDownFlag": false,
            "queryId": "",
            "currency": "KES",
            "value1": "61600",
            "value1NegativeFlag": false,
            "value2": "0.99",
            "value2NegativeFlag": false,
            "value3": "10.23",
            "value3NegativeFlag": false,
            "value4": "11.55",
            "value4NegativeFlag": false,
            "chartType": "Bar2d",
            "chartData": {
              "chart": {
                "caption": "",
                "subCaption": "",
                "xAxisName": "",
                "yAxisName": "",
                "numberSuffix": "K",
                "theme": "fusion"
              },
              "data": [{
                  "label": "Customer 1",
                  "value": "290"
                },
                {
                  "label": "Customer 2",
                  "value": "260"
                },
                {
                  "label": "Customer 3",
                  "value": "180"
                },
                {
                  "label": "Customer 4",
                  "value": "140"
                },
                {
                  "label": "Customer 5",
                  "value": "115"
                },
                {
                  "label": "Customer 6",
                  "value": "100"
                },
                {
                  "label": "Customer 7",
                  "value": "30"
                },
                {
                  "label": "Customer 8",
                  "value": "30"
                }
              ]
            },
            "resultlst": []
          }]
        }
      ]
    }]
  },
  "otherInfo": null
}
